Data,value
1/1/2010,41.651044
1/2/2010,131.286604
1/3/2010,117.388117
1/4/2010,116.46128
1/5/2010,123.823765
1/6/2010,104.285555
1/7/2010,227.972179
1/8/2010,190.955956
1/9/2010,144.632818
1/10/2010,110.763409
1/11/2010,175.913299
1/12/2010,162.546184
1/13/2010,145.120429
1/14/2010,144.649713
1/15/2010,152.625166
1/16/2010,112.59012
1/17/2010,96.006014
1/18/2010,130.464809
1/19/2010,135.666256
1/20/2010,144.797038
1/21/2010,140.312431
1/22/2010,134.976377
1/23/2010,112.657485
1/24/2010,88.68394
1/25/2010,120.638688
1/26/2010,123.070932
1/27/2010,136.875664
1/28/2010,136.40473
1/29/2010,131.601254
1/30/2010,113.154061
1/31/2010,83.629398
2/1/2010,148.523645
2/2/2010,132.581751
2/3/2010,125.859367
2/4/2010,130.928032
2/5/2010,147.501913
2/6/2010,119.211157
2/7/2010,100.810889
2/8/2010,129.047368
2/9/2010,133.631233
2/10/2010,133.2988
2/11/2010,149.920332
2/12/2010,133.86186
2/13/2010,124.973234
2/14/2010,118.762127
2/15/2010,148.031344
2/16/2010,145.905876
2/17/2010,134.587865
2/18/2010,139.211125
2/19/2010,134.685092
2/20/2010,115.226749
2/21/2010,103.408196
2/22/2010,125.863532
2/23/2010,122.144474
2/24/2010,140.784143
2/25/2010,133.449539
2/26/2010,148.713592
2/27/2010,104.886137
2/28/2010,91.276588
3/1/2010,122.951915
3/2/2010,147.164273
3/3/2010,145.818317
3/4/2010,136.323405
3/5/2010,119.840007
3/6/2010,131.336893
3/7/2010,105.310055
3/8/2010,128.93699
3/9/2010,135.84345
3/10/2010,155.075077
3/11/2010,182.340483
3/12/2010,148.850924
3/13/2010,128.271874
3/14/2010,112.533955
3/15/2010,176.936491
3/16/2010,153.638083
3/17/2010,133.925845
3/18/2010,142.268053
3/19/2010,129.503491
3/20/2010,143.512884
3/21/2010,116.958781
3/22/2010,133.507098
3/23/2010,137.197778
3/24/2010,125.321316
3/25/2010,119.888958
3/26/2010,130.54
3/27/2010,134.666187
3/28/2010,114.215155
3/29/2010,115.149217
3/30/2010,135.409251
3/31/2010,113.181685
4/1/2010,141.457408
4/2/2010,110.166763
4/3/2010,138.518936
4/4/2010,114.660058
4/5/2010,69.717735
4/6/2010,145.376606
4/7/2010,144.520892
4/8/2010,165.861902
4/9/2010,124.404201
4/10/2010,140.399989
4/11/2010,122.655303
4/12/2010,136.820172
4/13/2010,124.520986
4/14/2010,151.767257
4/15/2010,150.438833
4/16/2010,149.491651
4/17/2010,120.090753
4/18/2010,145.084
4/19/2010,126.993623
4/20/2010,115.222406
4/21/2010,129.877508
4/22/2010,125.445961
4/23/2010,130.680482
4/24/2010,133.727393
4/25/2010,83.816693
4/26/2010,124.319828
4/27/2010,151.230014
4/28/2010,124.248569
4/29/2010,140.14677
4/30/2010,122.492533
5/1/2010,68.098212
5/2/2010,114.553891
5/3/2010,113.301829
5/4/2010,118.513683
5/5/2010,141.778622
5/6/2010,115.136916
5/7/2010,140.621564
5/8/2010,130.404275
5/9/2010,101.200102
5/10/2010,124.668932
5/11/2010,118.715108
5/12/2010,122.366156
5/13/2010,111.069416
5/14/2010,121.991727
5/15/2010,124.293497
5/16/2010,81.250589
5/17/2010,114.74986
5/18/2010,127.202106
5/19/2010,129.887635
5/20/2010,144.180012
5/21/2010,122.320212
5/22/2010,107.32621
5/23/2010,74.370356
5/24/2010,120.569283
5/25/2010,146.330236
5/26/2010,142.014435
5/27/2010,146.814992
5/28/2010,122.313292
5/29/2010,91.256338
5/30/2010,112.683316
5/31/2010,140.221887
6/1/2010,169.970856
6/2/2010,86.337264
6/3/2010,112.454174
6/4/2010,114.757525
6/5/2010,174.356437
6/6/2010,118.287619
6/7/2010,120.199443
6/8/2010,116.059764
6/9/2010,124.556018
6/10/2010,131.173769
6/11/2010,145.006956
6/12/2010,155.659857
6/13/2010,96.318192
6/14/2010,136.495426
6/15/2010,135.744813
6/16/2010,129.707509
6/17/2010,132.96688
6/18/2010,142.654474
6/19/2010,110.302189
6/20/2010,79.290934
6/21/2010,111.842259
6/22/2010,135.320788
6/23/2010,129.764198
6/24/2010,121.476485
6/25/2010,134.528621
6/26/2010,104.226384
6/27/2010,79.586481
6/28/2010,128.836731
6/29/2010,126.515359
6/30/2010,131.960041
7/1/2010,142.247678
7/2/2010,169.510699
7/3/2010,121.992091
7/4/2010,100.000711
7/5/2010,139.689856
7/6/2010,131.376349
7/7/2010,155.793441
7/8/2010,152.735959
7/9/2010,164.491781
7/10/2010,120.093313
7/11/2010,106.182421
7/12/2010,143.257641
7/13/2010,183.609148
7/14/2010,188.037365
7/15/2010,176.352448
7/16/2010,187.080334
7/17/2010,137.62832
7/18/2010,88.20589
7/19/2010,127.634154
7/20/2010,201.328568
7/21/2010,186.109923
7/22/2010,202.385293
7/23/2010,208.164691
7/24/2010,129.254327
7/25/2010,100.132048
7/26/2010,111.190223
7/27/2010,137.446835
7/28/2010,211.176763
7/29/2010,129.477816
7/30/2010,116.208054
7/31/2010,142.737426
8/1/2010,117.45
8/2/2010,159.47544
8/3/2010,143.437083
8/4/2010,151.306682
8/5/2010,152.820758
8/6/2010,135.579255
8/7/2010,144.942119
8/8/2010,119.888371
8/9/2010,118.306501
8/10/2010,109.656701
8/11/2010,115.34684
8/12/2010,118.050046
8/13/2010,111.413571
8/14/2010,145.685991
8/15/2010,88.605041
8/16/2010,107.086288
8/17/2010,111.785184
8/18/2010,109.13075
8/19/2010,120.515396
8/20/2010,115.021541
8/21/2010,131.715343
8/22/2010,117.439898
8/23/2010,182.204862
8/24/2010,184.017686
8/25/2010,182.052075
8/26/2010,181.48213
8/27/2010,184.160128
8/28/2010,122.377454
8/29/2010,118.064885
8/30/2010,169.74
8/31/2010,206.01
9/1/2010,199.239396
9/2/2010,199.960024
9/3/2010,183.503207
9/4/2010,135.226029
9/5/2010,118.043212
9/6/2010,134.121651
9/7/2010,135.411695
9/8/2010,150.549539
9/9/2010,165.354818
9/10/2010,157.8523
9/11/2010,137.514346
9/12/2010,130.887429
9/13/2010,150.32528
9/14/2010,163.338734
9/15/2010,152.339119
9/16/2010,145.866978
9/17/2010,154.607292
9/18/2010,137.804142
9/19/2010,112.495563
9/20/2010,136.448521
9/21/2010,139.708144
9/22/2010,204.444179
9/23/2010,140.244514
9/24/2010,135.655281
9/25/2010,131.208806
9/26/2010,115.254805
9/27/2010,130.253684
9/28/2010,135.409733
9/29/2010,129.565678
9/30/2010,137.215601
10/1/2010,126.366487
10/2/2010,130.593334
10/3/2010,98.204012
10/4/2010,143.560108
10/5/2010,141.861622
10/6/2010,184.102662
10/7/2010,136.815822
10/8/2010,139.813922
10/9/2010,120.77316
10/10/2010,93.745553
10/11/2010,125.086075
10/12/2010,139.312889
10/13/2010,131.077232
10/14/2010,129.989777
10/15/2010,132.892545
10/16/2010,112.398557
10/17/2010,118.123289
10/18/2010,169.423686
10/19/2010,154.547935
10/20/2010,168.489506
10/21/2010,170.859139
10/22/2010,159.783691
10/23/2010,131.505391
10/24/2010,110.566333
10/25/2010,142.913445
10/26/2010,146.180208
10/27/2010,141.167553
10/28/2010,141.859976
10/29/2010,130.316368
10/30/2010,154.349531
10/31/2010,107.271718
11/1/2010,96.286178
11/2/2010,199.309108
11/3/2010,118.268842
11/4/2010,114.377662
11/5/2010,121.933983
11/6/2010,116.678664
11/7/2010,94.555191
11/8/2010,124.135246
11/9/2010,127.449268
11/10/2010,125.614642
11/11/2010,120.055341
11/12/2010,121.137708
11/13/2010,113.692335
11/14/2010,102.501297
11/15/2010,128.308548
11/16/2010,128.34562
11/17/2010,128.228132
11/18/2010,122.108257
11/19/2010,138.440312
11/20/2010,112.850117
11/21/2010,99.85679
11/22/2010,125.058486
11/23/2010,131.170096
11/24/2010,129.233642
11/25/2010,132.376216
11/26/2010,140.336309
11/27/2010,117.523704
11/28/2010,103.583673
11/29/2010,139.534129
11/30/2010,138.122809
12/1/2010,143.246885
12/2/2010,143.608567
12/3/2010,137.390054
12/4/2010,128.642492
12/5/2010,101.463823
12/6/2010,131.828871
12/7/2010,141.824575
12/8/2010,121.346106
12/9/2010,127.481076
12/10/2010,123.987383
12/11/2010,124.644759
12/12/2010,114.049997
12/13/2010,145.0891
12/14/2010,147.462945
12/15/2010,151.013151
12/16/2010,141.346808
12/17/2010,141.353459
12/18/2010,130.704383
12/19/2010,117.189632
12/20/2010,129.412246
12/21/2010,133.366774
12/22/2010,124.396786
12/23/2010,111.859989
12/24/2010,121.952715
12/25/2010,99.394193
12/26/2010,133.368991
12/27/2010,117.740141
12/28/2010,116.86496
12/29/2010,112.35411
12/30/2010,111.562255
12/31/2010,94.812795
1/1/2011,130.248131
1/2/2011,134.310244
1/3/2011,129.471787
1/4/2011,136.400463
1/5/2011,128.340472
1/6/2011,104.578098
1/7/2011,130.282928
1/8/2011,129.464093
1/9/2011,134.451656
1/10/2011,140.02002
1/11/2011,136.621218
1/12/2011,136.927363
1/13/2011,135.792581
1/14/2011,143.559364
1/15/2011,129.133639
1/16/2011,89.960581
1/17/2011,132.933352
1/18/2011,142.56222
1/19/2011,139.401135
1/20/2011,137.715549
1/21/2011,141.448299
1/22/2011,125.321274
1/23/2011,105.682086
1/24/2011,144.207868
1/25/2011,141.546458
1/26/2011,139.921783
1/27/2011,137.591611
1/28/2011,135.50552
1/29/2011,129.294882
1/30/2011,133.396685
1/31/2011,144.986398
2/1/2011,132.976822
2/2/2011,130.839768
2/3/2011,130.262403
2/4/2011,133.261879
2/5/2011,122.630198
2/6/2011,115.835604
2/7/2011,141.410819
2/8/2011,139.766585
2/9/2011,141.357446
2/10/2011,136.621951
2/11/2011,141.828811
2/12/2011,125.436297
2/13/2011,134.926687
2/14/2011,136.584054
2/15/2011,144.162265
2/16/2011,138.66086
2/17/2011,140.196831
2/18/2011,163.193876
2/19/2011,121.697771
2/20/2011,121.226452
2/21/2011,166.765658
2/22/2011,160.127494
2/23/2011,147.27178
2/24/2011,172.984725
2/25/2011,159.117237
2/26/2011,142.518131
2/27/2011,117.523624
2/28/2011,151.461836
3/1/2011,154.124492
3/2/2011,152.952223
3/3/2011,146.917622
3/4/2011,146.431728
3/5/2011,128.496202
3/6/2011,116.93265
3/7/2011,150.480885
3/8/2011,149.581991
3/9/2011,160.608972
3/10/2011,146.066371
3/11/2011,146.008561
3/12/2011,130.337687
3/13/2011,106.351537
3/14/2011,145.043289
3/15/2011,150.651307
3/16/2011,143.901524
3/17/2011,125.062291
3/18/2011,185.117401
3/19/2011,142.122789
3/20/2011,110.515622
3/21/2011,144.601774
3/22/2011,146.723334
3/23/2011,143.885547
3/24/2011,144.167288
3/25/2011,164.233727
3/26/2011,137.355098
3/27/2011,133.512256
3/28/2011,135.536914
3/29/2011,144.658054
3/30/2011,144.786005
3/31/2011,139.672754
4/1/2011,132.260512
4/2/2011,135.678788
4/3/2011,125.676938
4/4/2011,137.71242
4/5/2011,137.413105
4/6/2011,130.50177
4/7/2011,161.508994
4/8/2011,133.976382
4/9/2011,130.84536
4/10/2011,98.872632
4/11/2011,132.327164
4/12/2011,128.116758
4/13/2011,129.113439
4/14/2011,147.442854
4/15/2011,149.067157
4/16/2011,137.984046
4/17/2011,120.422083
4/18/2011,136.469118
4/19/2011,135.164993
4/20/2011,181.416487
4/21/2011,133.855564
4/22/2011,125.543204
4/23/2011,109.999595
4/24/2011,141.908021
4/25/2011,84.593698
4/26/2011,180.100131
4/27/2011,147.732557
4/28/2011,143.441067
4/29/2011,137.045875
4/30/2011,150.385018
5/1/2011,113.250972
5/2/2011,137.600705
5/3/2011,159.025496
5/4/2011,151.291743
5/5/2011,151.356972
5/6/2011,148.562612
5/7/2011,142.80831
5/8/2011,129.468713
5/9/2011,144.282367
5/10/2011,148.611331
5/11/2011,152.869334
5/12/2011,154.280429
5/13/2011,147.441024
5/14/2011,147.093802
5/15/2011,128.251769
5/16/2011,148.264422
5/17/2011,148.473
5/18/2011,147.471914
5/19/2011,162.741539
5/20/2011,161.630628
5/21/2011,138.709409
5/22/2011,133.688072
5/23/2011,165.706596
5/24/2011,152.676431
5/25/2011,153.900506
5/26/2011,158.932136
5/27/2011,159.270003
5/28/2011,156.87668
5/29/2011,137.97628
5/30/2011,149.06829
5/31/2011,151.803758
6/1/2011,145.940434
6/2/2011,117.770971
6/3/2011,152.180595
6/4/2011,139.507621
6/5/2011,134.203631
6/6/2011,138.745816
6/7/2011,141.213046
6/8/2011,136.585988
6/9/2011,139.936056
6/10/2011,137.161184
6/11/2011,123.273922
6/12/2011,117.327236
6/13/2011,145.682926
6/14/2011,132.517491
6/15/2011,153.611166
6/16/2011,148.257782
6/17/2011,140.752706
6/18/2011,136.985112
6/19/2011,114.683286
6/20/2011,135.026319
6/21/2011,138.988219
6/22/2011,158.219856
6/23/2011,165.683872
6/24/2011,146.101778
6/25/2011,125.591203
6/26/2011,107.637583
6/27/2011,150.541006
6/28/2011,167.832843
6/29/2011,163.153288
6/30/2011,164.919385
7/1/2011,167.706791
7/2/2011,147.609843
7/3/2011,120.819308
7/4/2011,163.279228
7/5/2011,159.055927
7/6/2011,155.911659
7/7/2011,162.710119
7/8/2011,159.689901
7/9/2011,132.024632
7/10/2011,124.586075
7/11/2011,169.124069
7/12/2011,174.099241
7/13/2011,209.808234
7/14/2011,204.836521
7/15/2011,178.26647
7/16/2011,119.120969
7/17/2011,82.00588
7/18/2011,138.135837
7/19/2011,153.377599
7/20/2011,151.95874
7/21/2011,141.10254
7/22/2011,152.066963
7/23/2011,125.415016
7/24/2011,93.31055
7/25/2011,140.242594
7/26/2011,172.47
7/27/2011,148.854464
7/28/2011,156.253769
7/29/2011,133.092113
7/30/2011,124.883029
7/31/2011,77.225323
8/1/2011,120.501757
8/2/2011,156.418256
8/3/2011,138.665367
8/4/2011,143.817518
8/5/2011,137.828153
8/6/2011,127.291824
8/7/2011,127.081482
8/8/2011,126.162703
8/9/2011,111.044725
8/10/2011,148.295793
8/11/2011,139.830447
8/12/2011,131.673904
8/13/2011,128.965789
8/14/2011,106.252998
8/15/2011,109.228334
8/16/2011,133.59201
8/17/2011,126.72313
8/18/2011,145.423974
8/19/2011,145.394494
8/20/2011,133.006521
8/21/2011,141.828812
8/22/2011,154.12272
8/23/2011,159.740893
8/24/2011,163.930616
8/25/2011,179.131415
8/26/2011,174.253038
8/27/2011,137.849797
8/28/2011,123.719993
8/29/2011,203.363503
8/30/2011,163.764693
8/31/2011,163.671918
9/1/2011,195.648786
9/2/2011,193.079618
9/3/2011,150.931959
9/4/2011,141.33559
9/5/2011,180.241541
9/6/2011,163.719553
9/7/2011,181.112757
9/8/2011,177.906224
9/9/2011,183.418691
9/10/2011,141.384506
9/11/2011,158.915203
9/12/2011,173.323422
9/13/2011,182.550026
9/14/2011,187.431625
9/15/2011,189.366728
9/16/2011,194.127902
9/17/2011,166.610716
9/18/2011,125.008759
9/19/2011,154.504327
9/20/2011,172.820147
9/21/2011,156.017495
9/22/2011,162.440451
9/23/2011,162.201685
9/24/2011,145.230137
9/25/2011,119.271604
9/26/2011,165.853053
9/27/2011,168.877849
9/28/2011,161.367117
9/29/2011,161.148151
9/30/2011,165.466857
10/1/2011,147.927862
10/2/2011,142.589059
10/3/2011,172.075538
10/4/2011,153.70043
10/5/2011,148.91592
10/6/2011,163.687
10/7/2011,154.093355
10/8/2011,142.300367
10/9/2011,124.955585
10/10/2011,148.822959
10/11/2011,155.064376
10/12/2011,169.632083
10/13/2011,158.652293
10/14/2011,154.99975
10/15/2011,141.05887
10/16/2011,156.168178
10/17/2011,155.267
10/18/2011,164.228422
10/19/2011,162.352452
10/20/2011,161.346522
10/21/2011,194.784201
10/22/2011,170.746878
10/23/2011,144.480288
10/24/2011,167.553067
10/25/2011,159.508709
10/26/2011,159.88776
10/27/2011,164.280134
10/28/2011,155.755722
10/29/2011,163.858199
10/30/2011,155.873396
10/31/2011,158.447657
11/1/2011,111.980323
11/2/2011,158.893096
11/3/2011,154.612124
11/4/2011,157.443337
11/5/2011,147.00616
11/6/2011,103.316834
11/7/2011,154.850529
11/8/2011,155.213287
11/9/2011,157.630064
11/10/2011,155.968646
11/11/2011,157.088936
11/12/2011,154.68096
11/13/2011,127.043388
11/14/2011,156.04807
11/15/2011,157.206637
11/16/2011,158.167158
11/17/2011,159.083431
11/18/2011,158.719672
11/19/2011,149.220297
11/20/2011,126.304198
11/21/2011,153.08551
11/22/2011,149.385924
11/23/2011,164.833529
11/24/2011,160.189125
11/25/2011,156.424305
11/26/2011,160.420654
11/27/2011,121.778881
11/28/2011,162.766234
11/29/2011,160.777225
11/30/2011,167.403934
12/1/2011,168.731097
12/2/2011,173.74505
12/3/2011,163.27803
12/4/2011,117.995253
12/5/2011,154.127136
12/6/2011,153.38
12/7/2011,159.178338
12/8/2011,144.360027
12/9/2011,154.737789
12/10/2011,132.678511
12/11/2011,118.633905
12/12/2011,181.452742
12/13/2011,162.738864
12/14/2011,166.597686
12/15/2011,159.088836
12/16/2011,159.416839
12/17/2011,142.759003
12/18/2011,137.390508
12/19/2011,160.753544
12/20/2011,161.941547
12/21/2011,164.854387
12/22/2011,154.623658
12/23/2011,147.920034
12/24/2011,170.108146
12/25/2011,151.832376
12/26/2011,136.935203
12/27/2011,151.718536
12/28/2011,137.341579
12/29/2011,152.78045
12/30/2011,144.685889
12/31/2011,138.64165
1/1/2012,124.4303
1/2/2012,158.39769
1/3/2012,160.003633
1/4/2012,158.112319
1/5/2012,160.329765
1/6/2012,101.171948
1/7/2012,148.101534
1/8/2012,140.572675
1/9/2012,165.407319
1/10/2012,160.52289
1/11/2012,168.486351
1/12/2012,163.70418
1/13/2012,157.352403
1/14/2012,133.80922
1/15/2012,121.615889
1/16/2012,158.561617
1/17/2012,168.334549
1/18/2012,167.063012
1/19/2012,161.246436
1/20/2012,157.513898
1/21/2012,160.39237
1/22/2012,108.43394
1/23/2012,158.131911
1/24/2012,158.788267
1/25/2012,156.944994
1/26/2012,157.414553
1/27/2012,163.095655
1/28/2012,149.820177
1/29/2012,134.757048
1/30/2012,157.365626
1/31/2012,172.422958
2/1/2012,163.325275
2/2/2012,164.576944
2/3/2012,182.223856
2/4/2012,146.46729
2/5/2012,129.049461
2/6/2012,216.697755
2/7/2012,222.568152
2/8/2012,247.613372
2/9/2012,254.403071
2/10/2012,288.834694
2/11/2012,169.763917
2/12/2012,151.80983
2/13/2012,221.942134
2/14/2012,174.062926
2/15/2012,160.112323
2/16/2012,162.655513
2/17/2012,164.17935
2/18/2012,155.458904
2/19/2012,144.027499
2/20/2012,176.217117
2/21/2012,166.689619
2/22/2012,157.805812
2/23/2012,157.348082
2/24/2012,163.130737
2/25/2012,137.480898
2/26/2012,84.563397
2/27/2012,149.783981
2/28/2012,154.590056
2/29/2012,157.31243
3/1/2012,153.935569
3/2/2012,154.851295
3/3/2012,135.086174
3/4/2012,103.061259
3/5/2012,156.040208
3/6/2012,157.694265
3/7/2012,154.738874
3/8/2012,157.249969
3/9/2012,147.967347
3/10/2012,109.128297
3/11/2012,85.033462
3/12/2012,150.281375
3/13/2012,150.083262
3/14/2012,151.532416
3/15/2012,139.472416
3/16/2012,144.645649
3/17/2012,114.550978
3/18/2012,84.129708
3/19/2012,155.949811
3/20/2012,163.156309
3/21/2012,137.636678
3/22/2012,125.804009
3/23/2012,146.739643
3/24/2012,151.469786
3/25/2012,81.352852
3/26/2012,153.337482
3/27/2012,142.26981
3/28/2012,140.271905
3/29/2012,149.787109
3/30/2012,148.582534
3/31/2012,156.397575
4/1/2012,164.077556
4/2/2012,151.492692
4/3/2012,145.061413
4/4/2012,162.058654
4/5/2012,167.481781
4/6/2012,136.233038
4/7/2012,150.872633
4/8/2012,62.51
4/9/2012,58.122366
4/10/2012,165.478516
4/11/2012,148.935688
4/12/2012,142.1481
4/13/2012,149.527929
4/14/2012,145.634549
4/15/2012,122.909957
4/16/2012,158.274407
4/17/2012,142.963961
4/18/2012,140.125029
4/19/2012,152.251621
4/20/2012,151.974044
4/21/2012,112.929587
4/22/2012,99.911781
4/23/2012,135.616046
4/24/2012,136.233097
4/25/2012,94.392313
4/26/2012,140.635331
4/27/2012,127.243458
4/28/2012,132.564019
4/29/2012,133.449597
4/30/2012,128.683681
5/1/2012,96.996336
5/2/2012,148.387259
5/3/2012,105.863756
5/4/2012,128.555279
5/5/2012,127.320926
5/6/2012,99.857326
5/7/2012,142.396297
5/8/2012,127.808053
5/9/2012,122.747834
5/10/2012,144.551293
5/11/2012,139.353087
5/12/2012,107.000951
5/13/2012,102.287143
5/14/2012,141.498113
5/15/2012,137.56298
5/16/2012,135.35323
5/17/2012,132.276559
5/18/2012,146.331104
5/19/2012,133.784843
5/20/2012,119.43
5/21/2012,164.856579
5/22/2012,139.343211
5/23/2012,147.5
5/24/2012,146.648607
5/25/2012,134.4465
5/26/2012,101.611999
5/27/2012,56.135368
5/28/2012,151.653115
5/29/2012,137.695722
5/30/2012,149.943019
5/31/2012,157.243435
6/1/2012,159.64836
6/2/2012,86.06285
6/3/2012,120.80006
6/4/2012,154.3
6/5/2012,110.01285
6/6/2012,145.968882
6/7/2012,153.371263
6/8/2012,153.478488
6/9/2012,139.699161
6/10/2012,96.927957
6/11/2012,119.72154
6/12/2012,141.788859
6/13/2012,128.716629
6/14/2012,144.269171
6/15/2012,154.572362
6/16/2012,129.86
6/17/2012,91.406137
6/18/2012,157.547271
6/19/2012,154.610473
6/20/2012,170.496133
6/21/2012,168.56735
6/22/2012,171.135514
6/23/2012,150.848414
6/24/2012,115.652591
6/25/2012,143.621708
6/26/2012,160.768139
6/27/2012,169.524646
6/28/2012,174.447236
6/29/2012,164.417651
6/30/2012,159.029748
7/1/2012,160.623
7/2/2012,172.29264
7/3/2012,163.391981
7/4/2012,173.509431
7/5/2012,162.704374
7/6/2012,159.720564
7/7/2012,138.362687
7/8/2012,127.209694
7/9/2012,153.194713
7/10/2012,162.490011
7/11/2012,165.316199
7/12/2012,170.458395
7/13/2012,160.760967
7/14/2012,148.549773
7/15/2012,130.128503
7/16/2012,148.756778
7/17/2012,155.228309
7/18/2012,134.347748
7/19/2012,161.839538
7/20/2012,155.760715
7/21/2012,144.643478
7/22/2012,124.757267
7/23/2012,137.364767
7/24/2012,155.039513
7/25/2012,162.816341
7/26/2012,169.344565
7/27/2012,154.272848
7/28/2012,143.749567
7/29/2012,118.681545
7/30/2012,160.586592
7/31/2012,172.059005
8/1/2012,172.3586
8/2/2012,165.601167
8/3/2012,172.85973
8/4/2012,170.991341
8/5/2012,150.308741
8/6/2012,148.677887
8/7/2012,142.343122
8/8/2012,149.526069
8/9/2012,148.866004
8/10/2012,145.409248
8/11/2012,146.565115
8/12/2012,147.900832
8/13/2012,148.242421
8/14/2012,139.760372
8/15/2012,146.473134
8/16/2012,148.16107
8/17/2012,153.065869
8/18/2012,140.50393
8/19/2012,140.588473
8/20/2012,144.603748
8/21/2012,149.5648
8/22/2012,159.0166
8/23/2012,146.333423
8/24/2012,152.421087
8/25/2012,143.083244
8/26/2012,137.941178
8/27/2012,160.964867
8/28/2012,171.302231
8/29/2012,161.655905
8/30/2012,152.205668
8/31/2012,169.213816
9/1/2012,142.146587
9/2/2012,150.727457
9/3/2012,177.436186
9/4/2012,150.707789
9/5/2012,161.669208
9/6/2012,159.708787
9/7/2012,156.507541
9/8/2012,146.623739
9/9/2012,154.05692
9/10/2012,161.842994
9/11/2012,157.83079
9/12/2012,158.16521
9/13/2012,157.20193
9/14/2012,150.890133
9/15/2012,133
9/16/2012,110.592318
9/17/2012,158.161745
9/18/2012,153.365205
9/19/2012,162.878575
9/20/2012,149.338597
9/21/2012,151.107941
9/22/2012,134.884072
9/23/2012,96.824321
9/24/2012,151.527749
9/25/2012,138.571118
9/26/2012,168.931636
9/27/2012,153.189601
9/28/2012,151.587436
9/29/2012,133.718137
9/30/2012,132.559112
10/1/2012,142.077838
10/2/2012,138.963273
10/3/2012,137.379652
10/4/2012,135.636688
10/5/2012,136.498164
10/6/2012,125.571253
10/7/2012,87.29825
10/8/2012,135.204888
10/9/2012,141.68332
10/10/2012,142.392221
10/11/2012,143.030473
10/12/2012,145.895901
10/13/2012,125.293687
10/14/2012,126.931057
10/15/2012,143.691493
10/16/2012,139.65262
10/17/2012,139.387274
10/18/2012,132.397007
10/19/2012,130
10/20/2012,112.554797
10/21/2012,88.112847
10/22/2012,139.228729
10/23/2012,138.352325
10/24/2012,140.941281
10/25/2012,135.78432
10/26/2012,134.445856
10/27/2012,106.797566
10/28/2012,113.344165
10/29/2012,130.978208
10/30/2012,143.456209
10/31/2012,126.175339
11/1/2012,69.741702
11/2/2012,120.964891
11/3/2012,140.752471
11/4/2012,113.666959
11/5/2012,110.696095
11/6/2012,122.108783
11/7/2012,124.950542
11/8/2012,124.498305
11/9/2012,138.817219
11/10/2012,104.630684
11/11/2012,54.752462
11/12/2012,125.96938
11/13/2012,124.215559
11/14/2012,122.799795
11/15/2012,133.292781
11/16/2012,131.015314
11/17/2012,115.424623
11/18/2012,98.308209
11/19/2012,145.667692
11/20/2012,126.532843
11/21/2012,138.601208
11/22/2012,138.970467
11/23/2012,133.804916
11/24/2012,127.718817
11/25/2012,85.801893
11/26/2012,140.588611
11/27/2012,140.141431
11/28/2012,132.34386
11/29/2012,115.37789
11/30/2012,121.260143
12/1/2012,118.343002
12/2/2012,94.093645
12/3/2012,120.153108
12/4/2012,132.672391
12/5/2012,129.050944
12/6/2012,139.170326
12/7/2012,143.06357
12/8/2012,114.044573
12/9/2012,107.253023
12/10/2012,137.102733
12/11/2012,144.966466
12/12/2012,156.177776
12/13/2012,147.589258
12/14/2012,137.596122
12/15/2012,119.239084
12/16/2012,84.439988
12/17/2012,128.304513
12/18/2012,130.59
12/19/2012,124.55032
12/20/2012,134.47023
12/21/2012,134.956324
12/22/2012,90.566237
12/23/2012,114.372451
12/24/2012,129.819217
12/25/2012,90.634983
12/26/2012,91.026088
12/27/2012,138.522956
12/28/2012,113.404078
12/29/2012,86.926854
12/30/2012,127.159703
12/31/2012,130.778964
1/1/2013,102.132378
1/2/2013,127.533744
1/3/2013,127.930252
1/4/2013,128.079341
1/5/2013,95.818446
1/6/2013,89.267396
1/7/2013,140.203728
1/8/2013,127.170262
1/9/2013,135.255541
1/10/2013,131.814301
1/11/2013,126.547213
1/12/2013,112.485136
1/13/2013,99.15484
1/14/2013,134.828516
1/15/2013,135.508411
1/16/2013,122.827339
1/17/2013,150.185531
1/18/2013,142.091433
1/19/2013,126.28
1/20/2013,101.479913
1/21/2013,131.645575
1/22/2013,111.905381
1/23/2013,139.299164
1/24/2013,143.732932
1/25/2013,136.926939
1/26/2013,117.559327
1/27/2013,93.563074
1/28/2013,129.420125
1/29/2013,127.897737
1/30/2013,119.398993
1/31/2013,126.846554
2/1/2013,117.414908
2/2/2013,90.095424
2/3/2013,81.019153
2/4/2013,122.22824
2/5/2013,126.001737
2/6/2013,118.820539
2/7/2013,130.050284
2/8/2013,125.105597
2/9/2013,124.01303
2/10/2013,104.951973
2/11/2013,127.105017
2/12/2013,125.997835
2/13/2013,134.994264
2/14/2013,120.289536
2/15/2013,128.773519
2/16/2013,115.757589
2/17/2013,95.810269
2/18/2013,134.545172
2/19/2013,130.800471
2/20/2013,130.547068
2/21/2013,126.66054
2/22/2013,126.555544
2/23/2013,114.921124
2/24/2013,110.251975
2/25/2013,131.095388
2/26/2013,140.041175
2/27/2013,135.693749
2/28/2013,126.352028
3/1/2013,117.655228
3/2/2013,116.572554
3/3/2013,93.400298
3/4/2013,127.894285
3/5/2013,120.20765
3/6/2013,129.226097
3/7/2013,131.626814
3/8/2013,120.930954
3/9/2013,94.846281
3/10/2013,63.367625
3/11/2013,113.206291
3/12/2013,123.403996
3/13/2013,128.956346
3/14/2013,138.433733
3/15/2013,121.512704
3/16/2013,90.914131
3/17/2013,78.171635
3/18/2013,121.098101
3/19/2013,113.170246
3/20/2013,130.672697
3/21/2013,115.245775
3/22/2013,131.375972
3/23/2013,123.111431
3/24/2013,101.354114
3/25/2013,148.669288
3/26/2013,126.809318
3/27/2013,145.79317
3/28/2013,148.857972
3/29/2013,126.432515
3/30/2013,130.564876
3/31/2013,100.748477
4/1/2013,106.961878
4/2/2013,161.149978
4/3/2013,144.076742
4/4/2013,131.120572
4/5/2013,120.437724
4/6/2013,118.988048
4/7/2013,89.483695
4/8/2013,159.941537
4/9/2013,129.178531
4/10/2013,119.84364
4/11/2013,126.560874
4/12/2013,118.336961
4/13/2013,111.048724
4/14/2013,66.706988
4/15/2013,131.966137
4/16/2013,127.308125
4/17/2013,106.682872
4/18/2013,101.779312
4/19/2013,120.805326
4/20/2013,120.294405
4/21/2013,45.590146
4/22/2013,129.894369
4/23/2013,116.175194
4/24/2013,99.225304
4/25/2013,61.482001
4/26/2013,136.177363
4/27/2013,106.630614
4/28/2013,59.436236
4/29/2013,155.117409
4/30/2013,153.773157
5/1/2013,44.878759
5/2/2013,146.171269
5/3/2013,129.278004
5/4/2013,108.255251
5/5/2013,55.652699
5/6/2013,143.394483
5/7/2013,114.547997
5/8/2013,112.583138
5/9/2013,79.355436
5/10/2013,109.592156
5/11/2013,94.084113
5/12/2013,47.867536
5/13/2013,109.910727
5/14/2013,95.821356
5/15/2013,117.273327
5/16/2013,135.828541
5/17/2013,119.750357
5/18/2013,75
5/19/2013,27.691671
5/20/2013,90.399509
5/21/2013,91.644236
5/22/2013,107.999333
5/23/2013,100.417858
5/24/2013,86.546834
5/25/2013,84.711967
5/26/2013,29.388211
5/27/2013,123.29418
5/28/2013,111.915573
5/29/2013,106.648724
5/30/2013,108.876543
5/31/2013,96.761627
6/1/2013,71.135423
6/2/2013,29.914343
6/3/2013,121.03
6/4/2013,109.630411
6/5/2013,113.15
6/6/2013,105.545852
6/7/2013,87.399979
6/8/2013,83.898963
6/9/2013,57.70836
6/10/2013,119.33
6/11/2013,88.076613
6/12/2013,75.947712
6/13/2013,69.801476
6/14/2013,104.240291
6/15/2013,80.985926
6/16/2013,40.636289
6/17/2013,129.442033
6/18/2013,117.100818
6/19/2013,147.473834
6/20/2013,133.30351
6/21/2013,125.450785
6/22/2013,126.802593
6/23/2013,41.012503
6/24/2013,92.826023
6/25/2013,117.456766
6/26/2013,122.98581
6/27/2013,117.810459
6/28/2013,122.242034
6/29/2013,90.067089
6/30/2013,35.420803
7/1/2013,137.851659
7/2/2013,134.814486
7/3/2013,130.373807
7/4/2013,139.415007
7/5/2013,125.755405
7/6/2013,109.302474
7/7/2013,69.861174
7/8/2013,127.448205
7/9/2013,132.895129
7/10/2013,126.403547
7/11/2013,126.688436
7/12/2013,130.82741
7/13/2013,127.738078
7/14/2013,97.733992
7/15/2013,126.376199
7/16/2013,129.367925
7/17/2013,127.751122
7/18/2013,125.913978
7/19/2013,132.515876
7/20/2013,116.848017
7/21/2013,92.728042
7/22/2013,127.162386
7/23/2013,128.103973
7/24/2013,130.127879
7/25/2013,141.409395
7/26/2013,137.668996
7/27/2013,127.083805
7/28/2013,83.285653
7/29/2013,156.627821
7/30/2013,127.649935
7/31/2013,122.067566
8/1/2013,121.03486
8/2/2013,121.28385
8/3/2013,125.256425
8/4/2013,98.796145
8/5/2013,129.214148
8/6/2013,128.29692
8/7/2013,129.36816
8/8/2013,135.561106
8/9/2013,124.542629
8/10/2013,126.645974
8/11/2013,90.267497
8/12/2013,127.721954
8/13/2013,129.649338
8/14/2013,124.577623
8/15/2013,93.215085
8/16/2013,121.786002
8/17/2013,103.966523
8/18/2013,99.06334
8/19/2013,123.680493
8/20/2013,127.858287
8/21/2013,114.018365
8/22/2013,123.629899
8/23/2013,124.795153
8/24/2013,113.834643
8/25/2013,103.39
8/26/2013,130.21051
8/27/2013,128.064947
8/28/2013,120.894429
8/29/2013,128.336538
8/30/2013,125.678773
8/31/2013,115.371075
9/1/2013,101.517182
9/2/2013,140.755067
9/3/2013,123.114408
9/4/2013,125.481066
9/5/2013,133.191816
9/6/2013,137.96214
9/7/2013,117.778288
9/8/2013,119.930107
9/9/2013,135.254056
9/10/2013,138.142596
9/11/2013,161.118787
9/12/2013,130.066965
9/13/2013,124.342261
9/14/2013,126.784176
9/15/2013,122.38064
9/16/2013,115.614734
9/17/2013,100.856911
9/18/2013,124.023616
9/19/2013,106.849787
9/20/2013,136.669013
9/21/2013,126.770748
9/22/2013,98.214021
9/23/2013,119.503514
9/24/2013,130.178406
9/25/2013,127.802052
9/26/2013,123.818615
9/27/2013,126.924936
9/28/2013,124.650175
9/29/2013,119.472846
9/30/2013,135.771036
10/1/2013,132.192174
10/2/2013,145.191527
10/3/2013,136.656295
10/4/2013,140.118984
10/5/2013,131.640305
10/6/2013,127.764806
10/7/2013,145.570573
10/8/2013,153.810692
10/9/2013,144.947195
10/10/2013,137.906334
10/11/2013,138.1
10/12/2013,131.080238
10/13/2013,121.787755
10/14/2013,140.959623
10/15/2013,131.969075
10/16/2013,116.422645
10/17/2013,126.230719
10/18/2013,147.016204
10/19/2013,123.72
10/20/2013,95.89
10/21/2013,138.835336
10/22/2013,138.555915
10/23/2013,128.495799
10/24/2013,124.325722
10/25/2013,124.249967
10/26/2013,96.580656
10/27/2013,52.003359
10/28/2013,119.195619
10/29/2013,121.370402
10/30/2013,121.962481
10/31/2013,122.464689
11/1/2013,109.328198
11/2/2013,119.749664
11/3/2013,80.303927
11/4/2013,122.030643
11/5/2013,114.18
11/6/2013,116.925262
11/7/2013,122.549557
11/8/2013,120.178764
11/9/2013,82.568447
11/10/2013,100.293008
11/11/2013,125.390167
11/12/2013,122.771864
11/13/2013,127.361245
11/14/2013,123.644358
11/15/2013,133.716468
11/16/2013,128.919407
11/17/2013,97.646763
11/18/2013,119.353366
11/19/2013,129.266547
11/20/2013,98.022453
11/21/2013,128.028707
11/22/2013,126.870321
11/23/2013,80.446607
11/24/2013,87.75945
11/25/2013,125.686513
11/26/2013,114.320484
11/27/2013,140.563174
11/28/2013,142.014067
11/29/2013,137.556469
11/30/2013,136.060074
12/1/2013,87.91658
12/2/2013,136.493975
12/3/2013,142.343543
12/4/2013,150.019303
12/5/2013,149.191649
12/6/2013,127.894546
12/7/2013,139.331484
12/8/2013,125.118273
12/9/2013,159.508082
12/10/2013,146.029975
12/11/2013,146.346075
12/12/2013,150.666864
12/13/2013,146.616119
12/14/2013,137.98453
12/15/2013,113.475255
12/16/2013,134.445487
12/17/2013,138.620679
12/18/2013,144.751309
12/19/2013,135.285865
12/20/2013,141.671853
12/21/2013,125
12/22/2013,140.661761
12/23/2013,143.21323
12/24/2013,136.625965
12/25/2013,98.479326
12/26/2013,64.76913
12/27/2013,128.1704
12/28/2013,130.294215
12/29/2013,101.26
12/30/2013,128.099639
12/31/2013,119.235988
1/1/2014,79.629319
1/2/2014,137.864256
1/3/2014,136.725719
1/4/2014,137.963692
1/5/2014,73.310866
1/6/2014,122.69221
1/7/2014,140.920131
1/8/2014,130.654258
1/9/2014,128.246771
1/10/2014,121.692069
1/11/2014,127.521957
1/12/2014,115.95323
1/13/2014,133.53084
1/14/2014,130.182474
1/15/2014,125.810998
1/16/2014,126.350385
1/17/2014,115.283814
1/18/2014,117.961084
1/19/2014,88.438842
1/20/2014,116.774214
1/21/2014,112.50979
1/22/2014,117.998864
1/23/2014,131.17
1/24/2014,119.588532
1/25/2014,94.559484
1/26/2014,68.735154
1/27/2014,123.180652
1/28/2014,111.221982
1/29/2014,124.670775
1/30/2014,125.820049
1/31/2014,115.448198
2/1/2014,108.1504
2/2/2014,79.221597
2/3/2014,125.94982
2/4/2014,129.053401
2/5/2014,123.017112
2/6/2014,109.36717
2/7/2014,124.71148
2/8/2014,84.782514
2/9/2014,30.875908
2/10/2014,112.064983
2/11/2014,110.611098
2/12/2014,105.675265
2/13/2014,108.76904
2/14/2014,84.848689
2/15/2014,99.674212
2/16/2014,49.176111
2/17/2014,99.322896
2/18/2014,107.836429
2/19/2014,99.575359
2/20/2014,110.858771
2/21/2014,113.99
2/22/2014,65.894847
2/23/2014,58.119156
2/24/2014,102.784467
2/25/2014,112.549276
2/26/2014,112.225068
2/27/2014,110.833693
2/28/2014,103.539777
3/1/2014,76.000464
3/2/2014,68.459329
3/3/2014,99.76928
3/4/2014,93.349206
3/5/2014,111.803247
3/6/2014,89.958602
3/7/2014,90.65379
3/8/2014,68.466346
3/9/2014,26.109992
3/10/2014,98.223954
3/11/2014,104.790503
3/12/2014,100.588233
3/13/2014,105.467897
3/14/2014,98.791002
3/15/2014,65.544842
3/16/2014,30.34
3/17/2014,102.229166
3/18/2014,90.452003
3/19/2014,84.561747
3/20/2014,83.312234
3/21/2014,92.369452
3/22/2014,59.457816
3/23/2014,35.388441
3/24/2014,82.87133
3/25/2014,99.683961
3/26/2014,97.836062
3/27/2014,104.055187
3/28/2014,82.53401
3/29/2014,48.988817
3/30/2014,44.880874
3/31/2014,125.972335
4/1/2014,84.618426
4/2/2014,87.456916
4/3/2014,98.848318
4/4/2014,105.793517
4/5/2014,87.47716
4/6/2014,31.61924
4/7/2014,75.936655
4/8/2014,86.5
4/9/2014,77.812881
4/10/2014,79.172452
4/11/2014,83.159874
4/12/2014,76.269065
4/13/2014,76.441256
4/14/2014,98.401003
4/15/2014,82.139976
4/16/2014,86.815596
4/17/2014,84.498257
4/18/2014,84.58
4/19/2014,83.283501
4/20/2014,75.01
4/21/2014,84.585452
4/22/2014,143.793957
4/23/2014,117.828731
4/24/2014,96.464161
4/25/2014,77.61978
4/26/2014,96.590346
4/27/2014,76.116177
4/28/2014,120.734183
4/29/2014,97.786091
4/30/2014,107.162538
5/1/2014,54.127232
5/2/2014,110.223047
5/3/2014,101.279518
5/4/2014,50.383305
5/5/2014,87.22
5/6/2014,90.847444
5/7/2014,90.28436
5/8/2014,85.195185
5/9/2014,88.235157
5/10/2014,82.420806
5/11/2014,30.43
5/12/2014,78.386282
5/13/2014,85.296228
5/14/2014,64.976176
5/15/2014,83.067332
5/16/2014,90.144645
5/17/2014,88.321656
5/18/2014,71.382325
5/19/2014,106.49
5/20/2014,95.28489
5/21/2014,94.382345
5/22/2014,93.712215
5/23/2014,102.166869
5/24/2014,80.232995
5/25/2014,54.105742
5/26/2014,94.479039
5/27/2014,81.860108
5/28/2014,93.661052
5/29/2014,100.602197
5/30/2014,89.860215
5/31/2014,69.096662
6/1/2014,59.95349
6/2/2014,75.015919
6/3/2014,91.638372
6/4/2014,92.763427
6/5/2014,88.16188
6/6/2014,89.706001
6/7/2014,73.955291
6/8/2014,55.503559
6/9/2014,87.073584
6/10/2014,91.648919
6/11/2014,93.75975
6/12/2014,99.196387
6/13/2014,98.235867
6/14/2014,87.662141
6/15/2014,73.204954
6/16/2014,113.524154
6/17/2014,104.27
6/18/2014,98.990383
6/19/2014,94.99
6/20/2014,89.215066
6/21/2014,79.463666
6/22/2014,78.381784
6/23/2014,101.899854
6/24/2014,85.887126
6/25/2014,99.587979
6/26/2014,106.965917
6/27/2014,97.060393
6/28/2014,84.106531
6/29/2014,69.983984
6/30/2014,83.954854
7/1/2014,95.112478
7/2/2014,94.886356
7/3/2014,90.40613
7/4/2014,88.285966
7/5/2014,85.072463
7/6/2014,75.84
7/7/2014,102.815286
7/8/2014,92.011109
7/9/2014,86.029173
7/10/2014,87.910338
7/11/2014,83.551179
7/12/2014,84.872946
7/13/2014,68.215828
7/14/2014,92.296128
7/15/2014,86.897811
7/16/2014,83.496673
7/17/2014,89.069161
7/18/2014,98.26416
7/19/2014,79.279679
7/20/2014,80.835273
7/21/2014,90.007065
7/22/2014,91.01582
7/23/2014,96.586524
7/24/2014,100.943223
7/25/2014,99.084648
7/26/2014,93.643844
7/27/2014,70.927518
7/28/2014,96.683873
7/29/2014,98.453377
7/30/2014,91.227528
7/31/2014,95.515773
8/1/2014,94.355283
8/2/2014,78.050825
8/3/2014,67.506888
8/4/2014,93.31941
8/5/2014,94.46705
8/6/2014,86.773003
8/7/2014,83.732222
8/8/2014,83.113482
8/9/2014,81.174857
8/10/2014,93.55742
8/11/2014,89.566381
8/12/2014,91.563187
8/13/2014,91.562226
8/14/2014,82.618541
8/15/2014,68.93
8/16/2014,86.803813
8/17/2014,65.449398
8/18/2014,92.129661
8/19/2014,90.501933
8/20/2014,84.218086
8/21/2014,86.526898
8/22/2014,90.270561
8/23/2014,89.254731
8/24/2014,76.955355
8/25/2014,99.807007
8/26/2014,104.573597
8/27/2014,96.803311
8/28/2014,107.83
8/29/2014,106.76642
8/30/2014,98.814303
8/31/2014,92.826677
9/1/2014,98.97879
9/2/2014,99.685192
9/3/2014,123.457401
9/4/2014,112.334868
9/5/2014,113.4414
9/6/2014,100.050153
9/7/2014,90.82268
9/8/2014,108.221227
9/9/2014,110.839501
9/10/2014,119.617116
9/11/2014,119.057938
9/12/2014,110.168299
9/13/2014,95.252984
9/14/2014,89.931829
9/15/2014,111.214126
9/16/2014,115.624778
9/17/2014,111.648078
9/18/2014,115.389174
9/19/2014,112.247484
9/20/2014,109.499499
9/21/2014,103.729369
9/22/2014,123.2
9/23/2014,111.394347
9/24/2014,119.422426
9/25/2014,119.71373
9/26/2014,114.561102
9/27/2014,103.026546
9/28/2014,107.745329
9/29/2014,156.938198
9/30/2014,117.981663
10/1/2014,139.53631
10/2/2014,142.129961
10/3/2014,138.881672
10/4/2014,126.487728
10/5/2014,106.006268
10/6/2014,136.970909
10/7/2014,138.771522
10/8/2014,144.848373
10/9/2014,141.001439
10/10/2014,130.747258
10/11/2014,123.521155
10/12/2014,110.03534
10/13/2014,123.149787
10/14/2014,120.547024
10/15/2014,112.529427
10/16/2014,115.391469
10/17/2014,117.920352
10/18/2014,115.242198
10/19/2014,80.787051
10/20/2014,126.917807
10/21/2014,136.241481
10/22/2014,119.437281
10/23/2014,117.144696
10/24/2014,116.751881
10/25/2014,105.910712
10/26/2014,64.831813
10/27/2014,115.295919
10/28/2014,118.542398
10/29/2014,123.884316
10/30/2014,129.447806
10/31/2014,122.449249
11/1/2014,86.290187
11/2/2014,95.556224
11/3/2014,123.60731
11/4/2014,114.676004
11/5/2014,104.004797
11/6/2014,104.034275
11/7/2014,105.056709
11/8/2014,89.331172
11/9/2014,60.45823
11/10/2014,111.886588
11/11/2014,111.223498
11/12/2014,116.954662
11/13/2014,113.553062
11/14/2014,110.252534
11/15/2014,88.869351
11/16/2014,66.112311
11/17/2014,98.334174
11/18/2014,102.029057
11/19/2014,109.678649
11/20/2014,110.25957
11/21/2014,113.040443
11/22/2014,93.919025
11/23/2014,85.784972
11/24/2014,110.761898
11/25/2014,116.064805
11/26/2014,131.427172
11/27/2014,123.382616
11/28/2014,123.988032
11/29/2014,105.698969
11/30/2014,78.644033
12/1/2014,110.944515
12/2/2014,125.407974
12/3/2014,129.407004
12/4/2014,131.97
12/5/2014,129.690958
12/6/2014,105.48512
12/7/2014,111.167125
12/8/2014,103.024797
12/9/2014,127.749935
12/10/2014,106.84345
12/11/2014,118.01
12/12/2014,114.22
12/13/2014,104.467651
12/14/2014,93.926541
12/15/2014,120.22
12/16/2014,128.17
12/17/2014,126.792677
12/18/2014,121.349341
12/19/2014,116.161552
12/20/2014,112.951244
12/21/2014,104.00439
12/22/2014,116.798552
12/23/2014,110.799547
12/24/2014,110.779492
12/25/2014,92.973753
12/26/2014,90.324026
12/27/2014,110.5
12/28/2014,82.033648
12/29/2014,96.580511
12/30/2014,108.03
12/31/2014,117.22
1/1/2015,77.9
1/2/2015,115.21588
1/3/2015,103.349136
1/4/2015,89.523865
1/5/2015,103.138484
1/6/2015,92.6
1/7/2015,116.772418
1/8/2015,127.263164
1/9/2015,117.015942
1/10/2015,90.051803
1/11/2015,71.264018
1/12/2015,102.03907
1/13/2015,107.941461
1/14/2015,101.884687
1/15/2015,108.016256
1/16/2015,108.086744
1/17/2015,88.09
1/18/2015,79.747648
1/19/2015,104.80148
1/20/2015,108.236289
1/21/2015,108.578976
1/22/2015,110.06062
1/23/2015,109.610118
1/24/2015,90.639685
1/25/2015,77.74311
1/26/2015,104.078197
1/27/2015,106.212166
1/28/2015,103.213334
1/29/2015,106.611334
1/30/2015,97.717868
1/31/2015,97.47
2/1/2015,70.835738
2/2/2015,109.616826
2/3/2015,125.266476
2/4/2015,115.56612
2/5/2015,119.9079
2/6/2015,110.14
2/7/2015,105.67823
2/8/2015,85.2
2/9/2015,117.48099
2/10/2015,122.65191
2/11/2015,122.53863
2/12/2015,125.41938
2/13/2015,112.61621
2/14/2015,114.84895
2/15/2015,96.04923
2/16/2015,116.17
2/17/2015,103.75012
2/18/2015,110.44336
2/19/2015,113.13315
2/20/2015,113.94918
2/21/2015,98.34
2/22/2015,100.86073
2/23/2015,107.57864
2/24/2015,110.93743
2/25/2015,105.06
2/26/2015,111.33
2/27/2015,117.65317
2/28/2015,97.76691
3/1/2015,100.59175
3/2/2015,95.35754
3/3/2015,108.85043
3/4/2015,103.59442
3/5/2015,98.19856
3/6/2015,92.96817
3/7/2015,79.25555
3/8/2015,85.16227
3/9/2015,95.85138
3/10/2015,105.92593
3/11/2015,99.7974
3/12/2015,88.24517
3/13/2015,91.76362
3/14/2015,98.90215
3/15/2015,94.83966
3/16/2015,113.01027
3/17/2015,107.68029
3/18/2015,105.2177
3/19/2015,99.60451
3/20/2015,138.47592
3/21/2015,86.85984
3/22/2015,92.77487
3/23/2015,107.08093
3/24/2015,113.63336
3/25/2015,114.2444
3/26/2015,106.96581
3/27/2015,93.67741
3/28/2015,60.96776
3/29/2015,69.23084
3/30/2015,80.20513
3/31/2015,96.11591
4/1/2015,87.54584
4/2/2015,106.57148
4/3/2015,85.27317
4/4/2015,103.07745
4/5/2015,81.05018
4/6/2015,61.46761
4/7/2015,87.39287
4/8/2015,84.18788
4/9/2015,98.7846
4/10/2015,100.12526
4/11/2015,104.51109
4/12/2015,93.6629
4/13/2015,105.49717
4/14/2015,100.48
4/15/2015,90.96961
4/16/2015,99.37047
4/17/2015,92.65563
4/18/2015,89.69257
4/19/2015,89.65228
4/20/2015,98.23916
4/21/2015,83.09065
4/22/2015,97.96222
4/23/2015,94.64854
4/24/2015,103.97083
4/25/2015,97.64656
4/26/2015,98.83998
4/27/2015,126.31796
4/28/2015,88.94066
4/29/2015,99.24038
4/30/2015,91.13845
5/1/2015,65.66668
5/2/2015,76.24124
5/3/2015,83.54043
5/4/2015,119.54705
5/5/2015,100.14189
5/6/2015,115.89635
5/7/2015,99.23053
5/8/2015,96.51391
5/9/2015,80.41321
5/10/2015,52.89933
5/11/2015,86.14541
5/12/2015,100.95419
5/13/2015,100.88316
5/14/2015,83.07506
5/15/2015,97.42
5/16/2015,93.0668
5/17/2015,63.9
5/18/2015,90.74587
5/19/2015,95.46976
5/20/2015,93.5836
5/21/2015,97.39768
5/22/2015,94.39056
5/23/2015,67.51776
5/24/2015,78.33228
5/25/2015,87.65973
5/26/2015,98.51242
5/27/2015,87.78126
5/28/2015,82.15185
5/29/2015,92.37732
5/30/2015,75.67961
5/31/2015,78.27376
6/1/2015,96.53748
6/2/2015,77.41447
6/3/2015,100.15472
6/4/2015,104.37255
6/5/2015,98.12471
6/6/2015,92.97417
6/7/2015,86.80768
6/8/2015,101.38769
6/9/2015,97.748
6/10/2015,97.39471
6/11/2015,97.38599
6/12/2015,117.39
6/13/2015,101.63492
6/14/2015,97.84033
6/15/2015,101.42097
6/16/2015,106.76008
6/17/2015,114.8574
6/18/2015,91.43341
6/19/2015,94.86354
6/20/2015,89.29639
6/21/2015,60.35
6/22/2015,90.38425
6/23/2015,89.42258
6/24/2015,95.02667
6/25/2015,94.67579
6/26/2015,91.19741
6/27/2015,78.7686
6/28/2015,86.88196
6/29/2015,93.56024
6/30/2015,99.69541
7/1/2015,96.15389
7/2/2015,102.73576
7/3/2015,102.9812
7/4/2015,94.01432
7/5/2015,90.34226
7/6/2015,122.26131
7/7/2015,134.22351
7/8/2015,136.03582
7/9/2015,147.94531
7/10/2015,124.62667
7/11/2015,91.70917
7/12/2015,92.74849
7/13/2015,116.61716
7/14/2015,129.45349
7/15/2015,144.79521
7/16/2015,146.72983
7/17/2015,145.60231
7/18/2015,116.78157
7/19/2015,106.54519
7/20/2015,135.3138
7/21/2015,151.93795
7/22/2015,197.71
7/23/2015,242.58433
7/24/2015,174.95
7/25/2015,115.13448
7/26/2015,93.32717
7/27/2015,124.85212
7/28/2015,128.8986
7/29/2015,148.95463
7/30/2015,136.05764
7/31/2015,135.02556
8/1/2015,112.81876
8/2/2015,106.72912
8/3/2015,115.07711
8/4/2015,115.04868
8/5/2015,114.32023
8/6/2015,123.73765
8/7/2015,114.84801
8/8/2015,111.25593
8/9/2015,102.36761
8/10/2015,107.94473
8/11/2015,106.65515
8/12/2015,101.96785
8/13/2015,95.51855
8/14/2015,97.84394
8/15/2015,86.18173
8/16/2015,82.21234
8/17/2015,92.47151
8/18/2015,92.7722
8/19/2015,92.84625
8/20/2015,80.03311
8/21/2015,85.74527
8/22/2015,81.70566
8/23/2015,79.71626
8/24/2015,99.77113
8/25/2015,92.32155
8/26/2015,105.29615
8/27/2015,93.95665
8/28/2015,105.44524
8/29/2015,88.94197
8/30/2015,86.66417
8/31/2015,109.50661
9/1/2015,120.63
9/2/2015,123.13128
9/3/2015,112.85174
9/4/2015,107.90621
9/5/2015,108.20402
9/6/2015,80.49353
9/7/2015,110.57285
9/8/2015,107.06643
9/9/2015,110.28508
9/10/2015,101.74875
9/11/2015,115.50608
9/12/2015,98.26376
9/13/2015,88.57736
9/14/2015,104.13304
9/15/2015,102.92857
9/16/2015,103.06179
9/17/2015,116.22947
9/18/2015,102.30992
9/19/2015,88.93761
9/20/2015,75.18639
9/21/2015,89.03965
9/22/2015,108.17947
9/23/2015,100.13282
9/24/2015,96.39439
9/25/2015,96.78952
9/26/2015,82.83914
9/27/2015,71.45473
9/28/2015,94.67306
9/29/2015,96.53097
9/30/2015,91.48165
10/1/2015,96.02511
10/2/2015,106.90521
10/3/2015,84.56518
10/4/2015,77.04512
10/5/2015,92.55275
10/6/2015,95.38676
10/7/2015,88.38382
10/8/2015,98.8571
10/9/2015,98.94874
10/10/2015,77.28902
10/11/2015,65.39638
10/12/2015,98.45182
10/13/2015,106.51644
10/14/2015,107.51383
10/15/2015,100.40801
10/16/2015,112.71092
10/17/2015,88.66811
10/18/2015,80.59673
10/19/2015,109.66716
10/20/2015,108.73043
10/21/2015,104.0381
10/22/2015,93.4916
10/23/2015,98.52041
10/24/2015,85.67958
10/25/2015,79.09897
10/26/2015,102.59211
10/27/2015,103.87571
10/28/2015,109.13159
10/29/2015,98.29
10/30/2015,96.37899
10/31/2015,77.49081
11/1/2015,60.33718
11/2/2015,90.14966
11/3/2015,95.69784
11/4/2015,99.57606
11/5/2015,98.93475
11/6/2015,94.41661
11/7/2015,81.23349
11/8/2015,63.45101
11/9/2015,106.53934
11/10/2015,107.36932
11/11/2015,102.44467
11/12/2015,110.67046
11/13/2015,118.7889
11/14/2015,85.1384
11/15/2015,80.33125
11/16/2015,104.34379
11/17/2015,118.12117
11/18/2015,142.24831
11/19/2015,146.13
11/20/2015,126.56075
11/21/2015,87.91956
11/22/2015,61.81591
11/23/2015,136.16972
11/24/2015,133.70693
11/25/2015,123.90742
11/26/2015,117.99365
11/27/2015,120.03003
11/28/2015,100.65601
11/29/2015,83.25765
11/30/2015,109.82833
12/1/2015,116.92207
12/2/2015,145.98829
12/3/2015,120.18349
12/4/2015,145.17213
12/5/2015,139.2
12/6/2015,91.33465
12/7/2015,110.13125
12/8/2015,93.61362
12/9/2015,116.28485
12/10/2015,114.65983
12/11/2015,112.12772
12/12/2015,111.05266
12/13/2015,87.48591
12/14/2015,120.3743
12/15/2015,128.0307
12/16/2015,145.19178
12/17/2015,130.9235
12/18/2015,130.45084
12/19/2015,100.28652
12/20/2015,87.15018
12/21/2015,114.31263
12/22/2015,107.72776
12/23/2015,107.30041
12/24/2015,96.50619
12/25/2015,81.60243
12/26/2015,71.714
12/27/2015,83.59245
12/28/2015,88.2406
12/29/2015,88.21893
12/30/2015,85.09869
12/31/2015,90.97733
1/1/2016,75.857
1/2/2016,88.22328
1/3/2016,60.69859
1/4/2016,86.28441
1/5/2016,91.26
1/6/2016,94.21014
1/7/2016,109.82281
1/8/2016,105.7956
1/9/2016,84.35389
1/10/2016,64.6736
1/11/2016,93.50204
1/12/2016,99.15194
1/13/2016,91.15511
1/14/2016,104.80105
1/15/2016,86.00166
1/16/2016,85.68828
1/17/2016,66.62667
1/18/2016,89.77396
1/19/2016,133.54086
1/20/2016,112.76324
1/21/2016,113.48854
1/22/2016,103.84344
1/23/2016,88.03829
1/24/2016,74.02896
1/25/2016,98.07287
1/26/2016,96.8772
1/27/2016,96.52
1/28/2016,101.54246
1/29/2016,95.19973
1/30/2016,87.75456
1/31/2016,46.84305
2/1/2016,88.31918
2/2/2016,92.6811
2/3/2016,82.93149
2/4/2016,76.1418
2/5/2016,77.80517
2/6/2016,76.19695
2/7/2016,67.95449
2/8/2016,82.8316
2/9/2016,77.08335
2/10/2016,71.54831
2/11/2016,74.42167
2/12/2016,80.27131
2/13/2016,60.83523
2/14/2016,62.01276
2/15/2016,78.68641
2/16/2016,78.48274
2/17/2016,76.25784
2/18/2016,77.59358
2/19/2016,74.60107
2/20/2016,59.45
2/21/2016,47.47439
2/22/2016,73.54819
2/23/2016,73.48184
2/24/2016,70.72531
2/25/2016,71.78393
2/26/2016,74.73231
2/27/2016,66.86529
2/28/2016,55.61115
2/29/2016,73.72674
3/1/2016,70.50444
3/2/2016,73.69502
3/3/2016,66.80192
3/4/2016,69.10746
3/5/2016,73.06032
3/6/2016,69.6565
3/7/2016,75.89784
3/8/2016,81.51798
3/9/2016,76.84804
3/10/2016,78.69347
3/11/2016,73.86853
3/12/2016,69.24037
3/13/2016,58.25069
3/14/2016,69.17525
3/15/2016,80.88403
3/16/2016,90.64837
3/17/2016,72.5576
3/18/2016,72.96661
3/19/2016,63.39527
3/20/2016,57.83
3/21/2016,68.56608
3/22/2016,69.95326
3/23/2016,70.33579
3/24/2016,62.61592
3/25/2016,59.13351
3/26/2016,68.76079
3/27/2016,56.34097
3/28/2016,65.16318
3/29/2016,69.01432
3/30/2016,64.44711
3/31/2016,63.47248
4/1/2016,68.77093
4/2/2016,65.2027
4/3/2016,64.66034
4/4/2016,68.65228
4/5/2016,65.24367
4/6/2016,64.0068
4/7/2016,62.92886
4/8/2016,64.87291
4/9/2016,62.07889
4/10/2016,56.9833
4/11/2016,59.73853
4/12/2016,59.56521
4/13/2016,64.86254
4/14/2016,60.15649
4/15/2016,64.86991
4/16/2016,59.29316
4/17/2016,60.41081
4/18/2016,63.8979
4/19/2016,59.89867
4/20/2016,48.47689
4/21/2016,59.44572
4/22/2016,63.88472
4/23/2016,74.12793
4/24/2016,51.28431
4/25/2016,55.60476
4/26/2016,66.52472
4/27/2016,64.72999
4/28/2016,76.16309
4/29/2016,69.72451
4/30/2016,69.67621
5/1/2016,60.88882
5/2/2016,73.62202
5/3/2016,65.38822
5/4/2016,65.56525
5/5/2016,64.58311
5/6/2016,67.09014
5/7/2016,64.38582
5/8/2016,60.5048
5/9/2016,76.44097
5/10/2016,78.7568
5/11/2016,82.76936
5/12/2016,73.16901
5/13/2016,68.64946
5/14/2016,60.74934
5/15/2016,54.87768
5/16/2016,61.73786
5/17/2016,67.13643
5/18/2016,74.08364
5/19/2016,78.21528
5/20/2016,67.38397
5/21/2016,41.64013
5/22/2016,51.68819
5/23/2016,66.40698
5/24/2016,58.66314
5/25/2016,66.35549
5/26/2016,69.67305
5/27/2016,69.8176
5/28/2016,59.11705
5/29/2016,64.32438
5/30/2016,77.70017
5/31/2016,73.07843
6/1/2016,89.5197
6/2/2016,61.2272
6/3/2016,80.95035
6/4/2016,72.14216
6/5/2016,67.48025
6/6/2016,68.85428
6/7/2016,66.28325
6/8/2016,70.37958
6/9/2016,77.9697
6/10/2016,76.50696
6/11/2016,62.33185
6/12/2016,53.4621
6/13/2016,69.5
6/14/2016,66.35744
6/15/2016,70.16
6/16/2016,68.72455
6/17/2016,61.09708
6/18/2016,52.2667
6/19/2016,49.35682
6/20/2016,66.74777
6/21/2016,74.91227
6/22/2016,79.11826
6/23/2016,68
6/24/2016,80.54387
6/25/2016,58.94
6/26/2016,53.93206
6/27/2016,76.04597
6/28/2016,71.04556
6/29/2016,77.13
6/30/2016,84.29147
7/1/2016,80.30877
7/2/2016,78.7583
7/3/2016,62
7/4/2016,83.69
7/5/2016,84.56857
7/6/2016,85.2
7/7/2016,88.57
7/8/2016,94.4
7/9/2016,73.32934
7/10/2016,66.97483
7/11/2016,94.04984
7/12/2016,129.72
7/13/2016,93.78404
7/14/2016,79.25376
7/15/2016,79.10497
7/16/2016,52.63102
7/17/2016,47.75341
7/18/2016,78.48921
7/19/2016,81.00263
7/20/2016,78.936
7/21/2016,88.55313
7/22/2016,84.77359
7/23/2016,78.73286
7/24/2016,67.52475
7/25/2016,84.97221
7/26/2016,81.34907
7/27/2016,82.67972
7/28/2016,83.67899
7/29/2016,79.98172
7/30/2016,74.54435
7/31/2016,73.7534
8/1/2016,79.29819
8/2/2016,78.7502
8/3/2016,78.55439
8/4/2016,80.47378
8/5/2016,81.3562
8/6/2016,73.1458
8/7/2016,60.4039
8/8/2016,75.43641
8/9/2016,69.67319
8/10/2016,65.96969
8/11/2016,68.7062
8/12/2016,62.0288
8/13/2016,54.64018
8/14/2016,55.60211
8/15/2016,61.00558
8/16/2016,72.19
8/17/2016,67.18353
8/18/2016,67.3791
8/19/2016,74.35151
8/20/2016,66.46607
8/21/2016,67.73688
8/22/2016,67.55756
8/23/2016,65.55629
8/24/2016,64.20716
8/25/2016,66.57274
8/26/2016,73.82151
8/27/2016,69.59441
8/28/2016,69.01258
8/29/2016,81.01241
8/30/2016,85.24496
8/31/2016,86.09643
9/1/2016,94.87786
9/2/2016,97.74881
9/3/2016,76.63666
9/4/2016,70.70603
9/5/2016,84.16836
9/6/2016,85.35802
9/7/2016,94.41356
9/8/2016,87.78002
9/9/2016,81.00497
9/10/2016,72.54561
9/11/2016,67.65197
9/12/2016,91.59873
9/13/2016,91.167
9/14/2016,89.98876
9/15/2016,95.55075
9/16/2016,95.42076
9/17/2016,73.41639
9/18/2016,65.76
9/19/2016,80.2889
9/20/2016,86.44757
9/21/2016,90.46136
9/22/2016,85.79578
9/23/2016,89.84813
9/24/2016,74.42925
9/25/2016,68.57091
9/26/2016,84.07497
9/27/2016,88.18494
9/28/2016,90.44203
9/29/2016,88.63091
9/30/2016,90.0581
10/1/2016,88
10/2/2016,76.85
10/3/2016,90.73225
10/4/2016,95.61022
10/5/2016,87.08732
10/6/2016,102.76598
10/7/2016,116.09473
10/8/2016,85.3237
10/9/2016,79.32883
10/10/2016,102.96288
10/11/2016,125.39559
10/12/2016,114.86357
10/13/2016,114.41276
10/14/2016,115.93404
10/15/2016,86.10918
10/16/2016,74.54
10/17/2016,104.93394
10/18/2016,124.25799
10/19/2016,121.20978
10/20/2016,133.23574
10/21/2016,137.16236
10/22/2016,102.97681
10/23/2016,94.86
10/24/2016,124.81917
10/25/2016,149.40885
10/26/2016,133.57904
10/27/2016,112.29404
10/28/2016,113.43604
10/29/2016,91.5339
10/30/2016,93.21305
10/31/2016,92.73483
11/1/2016,94.11969
11/2/2016,113.60399
11/3/2016,114.54308
11/4/2016,135.20188
11/5/2016,93.32181
11/6/2016,83.32866
11/7/2016,126.67745
11/8/2016,138.68818
11/9/2016,131.04806
11/10/2016,114.13273
11/11/2016,109.29511
11/12/2016,93.57575
11/13/2016,105.71
11/14/2016,158.89241
11/15/2016,155.41121
11/16/2016,131.56406
11/17/2016,122.20039
11/18/2016,117.01055
11/19/2016,105.32807
11/20/2016,96.78
11/21/2016,109.82
11/22/2016,114.97836
11/23/2016,107.6356
11/24/2016,107.71902
11/25/2016,106.90299
11/26/2016,89.36
11/27/2016,80.86
11/28/2016,113.2
11/29/2016,117.30228
11/30/2016,147.36076
12/1/2016,133.23501
12/2/2016,127.77469
12/3/2016,106.962
12/4/2016,84.85824
12/5/2016,117.84076
12/6/2016,123.24675
12/7/2016,113.68629
12/8/2016,100.6
12/9/2016,104.82577
12/10/2016,97.25246
12/11/2016,93.8595
12/12/2016,116.71109
12/13/2016,118.6408
12/14/2016,123.19501
12/15/2016,128.14125
12/16/2016,118.24185
12/17/2016,96.14799
12/18/2016,94.22398
12/19/2016,128.87975
12/20/2016,122.11664
12/21/2016,121.40546
12/22/2016,122.42588
12/23/2016,109.70597
12/24/2016,96.92
12/25/2016,81.28
12/26/2016,91.49
12/27/2016,114.34206
12/28/2016,92.35698
12/29/2016,85.22767
12/30/2016,106.4449
12/31/2016,97.99466
1/1/2017,96.09
1/2/2017,110.26071
1/3/2017,111.44178
1/4/2017,123.49377
1/5/2017,106.5611
1/6/2017,99.08319
1/7/2017,108.13784
1/8/2017,104.81095
1/9/2017,128.32769
1/10/2017,152.13631
1/11/2017,152.85747
1/12/2017,163.6784
1/13/2017,170.19981
1/14/2017,117.38984
1/15/2017,116.30559
1/16/2017,159.81095
1/17/2017,188.81388
1/18/2017,165.01066
1/19/2017,171.14839
1/20/2017,177.20723
1/21/2017,129.86337
1/22/2017,124.94904
1/23/2017,171.18288
1/24/2017,195.9715
1/25/2017,195.01802
1/26/2017,187.42522
1/27/2017,144.21491
1/28/2017,117.22225
1/29/2017,114.72452
1/30/2017,136.08672
1/31/2017,157.51438
2/1/2017,155.58716
2/2/2017,134.94792
2/3/2017,134.87346
2/4/2017,101.34775
2/5/2017,96.89496
2/6/2017,147.43906
2/7/2017,121.60822
2/8/2017,122.13787
2/9/2017,120.45494
2/10/2017,129.15067
2/11/2017,108.69737
2/12/2017,98.22095
2/13/2017,108.89898
2/14/2017,107.05122
2/15/2017,103.98237
2/16/2017,107.90769
2/17/2017,108.76392
2/18/2017,92.59263
2/19/2017,90.94
2/20/2017,120.28231
2/21/2017,106.29659
2/22/2017,99.58644
2/23/2017,103.47007
2/24/2017,103.71655
2/25/2017,96.38
2/26/2017,90.37761
2/27/2017,103.52951
2/28/2017,99.52822
3/1/2017,95.48778
3/2/2017,96.53678
3/3/2017,96.43868
3/4/2017,86.20425
3/5/2017,99.59544
3/6/2017,88.01072
3/7/2017,94.37187
3/8/2017,86.18728
3/9/2017,88.31151
3/10/2017,90.42527
3/11/2017,57.00667
3/12/2017,86.21
3/13/2017,96.83
3/14/2017,86.21
3/15/2017,86.41
3/16/2017,78.99
3/17/2017,88.99401
3/18/2017,76.89614
3/19/2017,76.94
3/20/2017,90.04412
3/21/2017,96.83563
3/22/2017,90.91855
3/23/2017,85.89662
3/24/2017,90.48479
3/25/2017,82.59071
3/26/2017,75.44049
3/27/2017,77.41
3/28/2017,83.53774
3/29/2017,85.80484
3/30/2017,80.19054
3/31/2017,87.04408
4/1/2017,86.40729
4/2/2017,78.37
4/3/2017,87.7221
4/4/2017,99.97402
4/5/2017,106.61272
4/6/2017,88.20163
4/7/2017,94.43428
4/8/2017,81.68719
4/9/2017,82.11
4/10/2017,83.51
4/11/2017,80.35
4/12/2017,92.75505
4/13/2017,79.85206
4/14/2017,83.80074
4/15/2017,71.79
4/16/2017,67.78
4/17/2017,63.49
4/18/2017,90.57217
4/19/2017,82.53116
4/20/2017,86.80271
4/21/2017,90.26418
4/22/2017,79.82
4/23/2017,75.17528
4/24/2017,111.00905
4/25/2017,81.70499
4/26/2017,95.2308
4/27/2017,94.62854
4/28/2017,86.29245
4/29/2017,70.93
4/30/2017,67.07
5/1/2017,74.54
5/2/2017,100
5/3/2017,101.57146
5/4/2017,97.93736
5/5/2017,96.38
5/6/2017,87.01907
5/7/2017,63.48559
5/8/2017,89.504
5/9/2017,87.65328
5/10/2017,91.3577
5/11/2017,86.42481
5/12/2017,83.00236
5/13/2017,79.21212
5/14/2017,68.64
5/15/2017,77.32676
5/16/2017,73.14
5/17/2017,76.07
5/18/2017,90.53387
5/19/2017,76.54443
5/20/2017,71.37846
5/21/2017,54.86
5/22/2017,79.62625
5/23/2017,85.87058
5/24/2017,83.2271
5/25/2017,90.42358
5/26/2017,79.67241
5/27/2017,74.27584
5/28/2017,57.76
5/29/2017,80.37734
5/30/2017,98.71769
5/31/2017,94.9162
6/1/2017,97.89033
6/2/2017,74.76954
6/3/2017,92.58588
6/4/2017,68.14971
6/5/2017,92.19847
6/6/2017,100.15703
6/7/2017,84.06343
6/8/2017,81.07934
6/9/2017,87.5766
6/10/2017,78.88474
6/11/2017,80.34736
6/12/2017,95.22514
6/13/2017,90.55299
6/14/2017,104.98995
6/15/2017,104.25319
6/16/2017,108.12164
6/17/2017,92.65324
6/18/2017,61.72676
6/19/2017,92.32357
6/20/2017,104.07342
6/21/2017,101.89787
6/22/2017,112.36383
6/23/2017,120.64286
6/24/2017,90.62022
6/25/2017,86.69088
6/26/2017,99.96913
6/27/2017,96.35853
6/28/2017,97.85745
6/29/2017,90.33076
6/30/2017,89.29507
7/1/2017,83.77729
7/2/2017,63.78344
7/3/2017,79.8971
7/4/2017,88.26
7/5/2017,98.56164
7/6/2017,98.68439
7/7/2017,95.22866
7/8/2017,94.37263
7/9/2017,81.03616
7/10/2017,101.98942
7/11/2017,102.13031
7/12/2017,112.22124
7/13/2017,105.48002
7/14/2017,107.22926
7/15/2017,83.58295
7/16/2017,62.9
7/17/2017,93.05026
7/18/2017,96.33026
7/19/2017,101.91087
7/20/2017,107.92882
7/21/2017,118.6131
7/22/2017,84.04593
7/23/2017,76.24302
7/24/2017,95.66559
7/25/2017,88.36682
7/26/2017,96.08058
7/27/2017,104.96105
7/28/2017,97.14676
7/29/2017,97.72
7/30/2017,80.35
7/31/2017,126.10224
8/1/2017,103.32867
8/2/2017,142.12
8/3/2017,178.80593
8/4/2017,172.12001
8/5/2017,97.75825
8/6/2017,86.81691
8/7/2017,93.2484
8/8/2017,100.84097
8/9/2017,102.41231
8/10/2017,95.43373
8/11/2017,84.86779
8/12/2017,91.33629
8/13/2017,73.09
8/14/2017,80.81
8/15/2017,78.62
8/16/2017,94.57087
8/17/2017,94.1286
8/18/2017,92.06495
8/19/2017,87.19004
8/20/2017,75.7
8/21/2017,87.68526
8/22/2017,97.71993
8/23/2017,97.01002
8/24/2017,99.55273
8/25/2017,104.71724
8/26/2017,98.61681
8/27/2017,82.14495
8/28/2017,145.98131
8/29/2017,108.16705
8/30/2017,128.91415
8/31/2017,111.69882
9/1/2017,117.59563
9/2/2017,87.62
9/3/2017,68.49014
9/4/2017,98.97
9/5/2017,112.72542
9/6/2017,103.52211
9/7/2017,107.81508
9/8/2017,104.90488
9/9/2017,87.21
9/10/2017,83.00035
9/11/2017,94.28409
9/12/2017,88.86379
9/13/2017,101.95106
9/14/2017,94.31856
9/15/2017,100.34028
9/16/2017,82.09303
9/17/2017,76.70404
9/18/2017,98.05148
9/19/2017,93.12154
9/20/2017,93.43532
9/21/2017,103.28875
9/22/2017,105.01
9/23/2017,95.95
9/24/2017,86.78394
9/25/2017,107.34036
9/26/2017,105.34
9/27/2017,102.26
9/28/2017,105.19949
9/29/2017,104.24434
9/30/2017,88.7975
10/1/2017,93.52
10/2/2017,109.2893
10/3/2017,112.5505
10/4/2017,114.38256
10/5/2017,114.03014
10/6/2017,112.78617
10/7/2017,77.15134
10/8/2017,87.40172
10/9/2017,119.26063
10/10/2017,128.84381
10/11/2017,118.53702
10/12/2017,115.13074
10/13/2017,113.57957
10/14/2017,96.02588
10/15/2017,80.68584
10/16/2017,106.34681
10/17/2017,114.7766
10/18/2017,114.6624
10/19/2017,116.85896
10/20/2017,116.43396
10/21/2017,106.34021
10/22/2017,90.16171
10/23/2017,104.36802
10/24/2017,107.478
10/25/2017,117.28939
10/26/2017,123.52513
10/27/2017,126.29646
10/28/2017,95.07276
10/29/2017,88.28946
10/30/2017,104.51303
10/31/2017,111.5168
11/1/2017,99.33
11/2/2017,112.28198
11/3/2017,117.30698
11/4/2017,97.67
11/5/2017,102.05223
11/6/2017,117.33034
11/7/2017,125.18598
11/8/2017,143.20745
11/9/2017,171.63971
11/10/2017,159.32982
11/11/2017,120.96
11/12/2017,101.19607
11/13/2017,116.33686
11/14/2017,150.4015
11/15/2017,138.80575
11/16/2017,139.37921
11/17/2017,135.03156
11/18/2017,109.74034
11/19/2017,106.10849
11/20/2017,128.85961
11/21/2017,122.73477
11/22/2017,128.16441
11/23/2017,137.45
11/24/2017,139.2916
11/25/2017,103.44086
11/26/2017,91.81663
11/27/2017,110.74867
11/28/2017,153.63
11/29/2017,144.69346
11/30/2017,135.11558
12/1/2017,145.43448
12/2/2017,130.67659
12/3/2017,113.18816
12/4/2017,159.49117
12/5/2017,171.20468
12/6/2017,174.21675
12/7/2017,154.72225
12/8/2017,128.80699
12/9/2017,124.82761
12/10/2017,110.32404
12/11/2017,137.18495
12/12/2017,150.62923
12/13/2017,195.01542
12/14/2017,160.57372
12/15/2017,123.93375
12/16/2017,115.83
12/17/2017,104.48532
12/18/2017,131.8419
12/19/2017,131.59445
12/20/2017,154.14614
12/21/2017,138.52116
12/22/2017,129.74938
12/23/2017,86.75162
12/24/2017,97.3
12/25/2017,101.19
12/26/2017,95.54
12/27/2017,94.68432
12/28/2017,91.354
12/29/2017,96.96372
12/30/2017,85.41
12/31/2017,82.01
1/1/2018,87.95964
1/2/2018,90.3
1/3/2018,103.95
1/4/2018,94.34287
1/5/2018,100.53
1/6/2018,88.92
1/7/2018,86.72
1/8/2018,98.14705
1/9/2018,112.13621
1/10/2018,100.8
1/11/2018,105.89779
1/12/2018,103.6244
1/13/2018,91.29
1/14/2018,87.13
1/15/2018,102.73631
1/16/2018,99.99627
1/17/2018,92.89962
1/18/2018,98.65912
1/19/2018,97.03203
1/20/2018,95.56356
1/21/2018,74.01252
1/22/2018,92.21814
1/23/2018,101.53
1/24/2018,98.0687
1/25/2018,102.79686
1/26/2018,99.2939
1/27/2018,92.73
1/28/2018,90.33121
1/29/2018,102.82546
1/30/2018,95.84742
1/31/2018,102.24731
2/1/2018,94.79862
2/2/2018,99.31361
2/3/2018,89.75869
2/4/2018,78.36
2/5/2018,102.06021
2/6/2018,104.98334
2/7/2018,102.41319
2/8/2018,106.60652
2/9/2018,105.25324
2/10/2018,91.19753
2/11/2018,72.1952
2/12/2018,101.45723
2/13/2018,104.82372
2/14/2018,100.2
2/15/2018,95.68808
2/16/2018,103.36744
2/17/2018,97.62306
2/18/2018,88.193
2/19/2018,112.42658
2/20/2018,110.14459
2/21/2018,113.1
2/22/2018,117.97
2/23/2018,154.75136
2/24/2018,139.78112
2/25/2018,101.57
2/26/2018,173.06896
2/27/2018,215.73958
2/28/2018,170.43434
3/1/2018,199.81749
3/2/2018,204.33689
3/3/2018,147.18
3/4/2018,100.71
3/5/2018,154.35467
3/6/2018,115.10833
3/7/2018,102.73823
3/8/2018,98.61075
3/9/2018,103
3/10/2018,95.74455
3/11/2018,128.87013
3/12/2018,91.11354
3/13/2018,95.55121
3/14/2018,98.0717
3/15/2018,122.6128
3/16/2018,103.92943
3/17/2018,106.6744
3/18/2018,78.34636
3/19/2018,120.16109
3/20/2018,119.36236
3/21/2018,111.67836
3/22/2018,121.32353
3/23/2018,106.92593
3/24/2018,93.17644
3/25/2018,89.37
3/26/2018,108.53393
3/27/2018,106.43489
3/28/2018,102.86094
3/29/2018,97.11872
3/30/2018,101.06377
3/31/2018,72.4649
4/1/2018,46.50048
4/2/2018,100.51
4/3/2018,101.19
4/4/2018,118.41626
4/5/2018,103.13986
4/6/2018,103.00187
4/7/2018,97.61
4/8/2018,75.76
4/9/2018,110.52
4/10/2018,104.29941
4/11/2018,110.81
4/12/2018,107.72
4/13/2018,110.5941
4/14/2018,92.71269
4/15/2018,92.66
4/16/2018,110.65
4/17/2018,106.19909
4/18/2018,96.48
4/19/2018,91.89883
4/20/2018,94.4
4/21/2018,93.37582
4/22/2018,82.89167
4/23/2018,95.83359
4/24/2018,113.94647
4/25/2018,79.73
4/26/2018,103.26356
4/27/2018,95.73833
4/28/2018,85.71781
4/29/2018,81.81
4/30/2018,96.33
5/1/2018,73.47
5/2/2018,105.83
5/3/2018,92.22284
5/4/2018,118.39795
5/5/2018,94.29768
5/6/2018,98.30174
5/7/2018,100.58541
5/8/2018,104.34798
5/9/2018,113.07351
5/10/2018,116.18513
5/11/2018,111.46789
5/12/2018,89.93398
5/13/2018,75.74
5/14/2018,91.00666
5/15/2018,111.5
5/16/2018,108.4
5/17/2018,128.42
5/18/2018,111.53
5/19/2018,99.62
5/20/2018,92.15
5/21/2018,137.64
5/22/2018,111.59214
5/23/2018,111.86
5/24/2018,108.94
5/25/2018,112.73
5/26/2018,95.98385
5/27/2018,76.64
5/28/2018,111.29821
5/29/2018,120.10571
5/30/2018,113.24849
5/31/2018,129.32
6/1/2018,121.06
6/2/2018,103.19684
6/3/2018,79.37237
6/4/2018,126.0345
6/5/2018,121.54508
6/6/2018,112.65998
6/7/2018,125.19489
6/8/2018,129.30933
6/9/2018,80.3
6/10/2018,97.70227
6/11/2018,128.29
6/12/2018,120.82044
6/13/2018,116.47587
6/14/2018,120.59
6/15/2018,110.67116
6/16/2018,103.24678
6/17/2018,89.28013
6/18/2018,114.56065
6/19/2018,111.74712
6/20/2018,117.65392
6/21/2018,127.31587
6/22/2018,127.26
6/23/2018,95.68628
6/24/2018,93.20639
6/25/2018,117.69
6/26/2018,109.06243
6/27/2018,118.17223
6/28/2018,119.10797
6/29/2018,118.84966
6/30/2018,102.39305
7/1/2018,95.18963
7/2/2018,122.1098
7/3/2018,120.97023
7/4/2018,140.73238
7/5/2018,122.5
7/6/2018,120.92
7/7/2018,101.83881
7/8/2018,98.61333
7/9/2018,119.87
7/10/2018,127.94778
7/11/2018,126.04564
7/12/2018,126.6059
7/13/2018,135.52867
7/14/2018,113.0684
7/15/2018,97.23559
7/16/2018,125.58827
7/17/2018,124.14083
7/18/2018,130.36702
7/19/2018,121.39
7/20/2018,132.01727
7/21/2018,116.59414
7/22/2018,92.15996
7/23/2018,121.37394
7/24/2018,117.54293
7/25/2018,122.41549
7/26/2018,126.92913
7/27/2018,131.34
7/28/2018,119.34
7/29/2018,101.42474
7/30/2018,132.09676
7/31/2018,127.76693
8/1/2018,142.13882
8/2/2018,141.56507
8/3/2018,144.30301
8/4/2018,124.13017
8/5/2018,127.95994
8/6/2018,134.49156
8/7/2018,129.93681
8/8/2018,134.67548
8/9/2018,127.78589
8/10/2018,133.77393
8/11/2018,117.44217
8/12/2018,118.4629
8/13/2018,121.08
8/14/2018,121.54079
8/15/2018,125.04
8/16/2018,122.26679
8/17/2018,121.99198
8/18/2018,113.74797
8/19/2018,113.80268
8/20/2018,130.41399
8/21/2018,132.1425
8/22/2018,133.76278
8/23/2018,135.44317
8/24/2018,131.99
8/25/2018,126.92351
8/26/2018,110.06616
8/27/2018,125.7136
8/28/2018,132.74299
8/29/2018,137.99868
8/30/2018,149.67412
8/31/2018,146.02
9/1/2018,129.86366
9/2/2018,129.36
9/3/2018,137.95485
9/4/2018,139.25905
9/5/2018,148.39518
9/6/2018,148.97
9/7/2018,153.32072
9/8/2018,139.58861
9/9/2018,135.68513
9/10/2018,164.08987
9/11/2018,154.97261
9/12/2018,164.41864
9/13/2018,186.11111
9/14/2018,165.33299
9/15/2018,146.74318
9/16/2018,131.81005
9/17/2018,162.42436
9/18/2018,162.04101
9/19/2018,152.83
9/20/2018,153.0053
9/21/2018,172.0642
9/22/2018,159.78
9/23/2018,134.97
9/24/2018,154.53541
9/25/2018,149.88449
9/26/2018,151.85896
9/27/2018,147.77018
9/28/2018,142.12611
9/29/2018,132.13891
9/30/2018,124.99891
10/1/2018,147.5607
10/2/2018,160.30924
10/3/2018,154.57916
10/4/2018,154.59403
10/5/2018,157.0086
10/6/2018,167.07224
10/7/2018,144.50956
10/8/2018,155.45548
10/9/2018,168.49058
10/10/2018,156.52125
10/11/2018,157.675
10/12/2018,149.49982
10/13/2018,131.91006
10/14/2018,123.74
10/15/2018,147.10195
10/16/2018,161.33656
10/17/2018,173.85026
10/18/2018,158.51912
10/19/2018,166.18709
10/20/2018,141.43509
10/21/2018,121.54683
10/22/2018,154.01543
10/23/2018,151.35937
10/24/2018,151.44931
10/25/2018,154.27581
10/26/2018,152.8426
10/27/2018,127.92461
10/28/2018,103.30715
10/29/2018,132.73733
10/30/2018,143.76781
10/31/2018,145.17362
11/1/2018,121.70145
11/2/2018,129.87704
11/3/2018,116.51
11/4/2018,106.88462
11/5/2018,127.15966
11/6/2018,126.89571
11/7/2018,119.03978
11/8/2018,122.75656
11/9/2018,127.8554
11/10/2018,121.5
11/11/2018,112.88172
11/12/2018,133.01668
11/13/2018,129.50024
11/14/2018,125.49752
11/15/2018,132.19747
11/16/2018,139.74896
11/17/2018,127.23
11/18/2018,119.12
11/19/2018,150.69883
11/20/2018,155.83955
11/21/2018,151.09056
11/22/2018,171.31142
11/23/2018,169.34835
11/24/2018,133.99014
11/25/2018,112.34667
11/26/2018,147.29325
11/27/2018,154.10868
11/28/2018,120.90239
11/29/2018,127.82091
11/30/2018,141.91858
12/1/2018,134.31584
12/2/2018,127.35
12/3/2018,136.63581
12/4/2018,136.50077
12/5/2018,131.79291
12/6/2018,143.66016
12/7/2018,136.92643
12/8/2018,88.56
12/9/2018,102.24
12/10/2018,124.88042
12/11/2018,129.50377
12/12/2018,151.2678
12/13/2018,145.02881
12/14/2018,151.53499
12/15/2018,132.02675
12/16/2018,121.02005
12/17/2018,151.76262
12/18/2018,128.6863
12/19/2018,152.69168
12/20/2018,142.10593
12/21/2018,141.71682
12/22/2018,117.91311
12/23/2018,126.38
12/24/2018,122.46693
12/25/2018,84.18509
12/26/2018,118.46845
12/27/2018,125.50424
12/28/2018,122.10442
12/29/2018,112.39416
12/30/2018,137.44
12/31/2018,118.06408
